[
  {
   "Coll_Json_Name" :"raghav",
   "Coll_Json_Job" :"administrator"
  },
  {
    "Coll_Json_Name" : "abhinav",
   "Coll_Json_Job" : "consultant"
  },
{
    "Coll_Json_Name" : "keshav",
   "Coll_Json_Job" : "consultant"
  }

]