{
	"info": {
		"_postman_id": "0ae165e9-dd96-4281-8ff0-835cbebaa141",
		"name": "REQ_RES_COLL",
		"schema": "https://schema.getpostman.com/json/collection/v2.1.0/collection.json",
		"_exporter_id": "33215093"
	},
	"item": [
		{
			"name": "post_api",
			"item": [
				{
					"name": "get_api",
					"item": [
						{
							"name": "put_api",
							"item": [
								{
									"name": "patch_api",
									"item": [
										{
											"name": "delete_api",
											"item": [
												{
													"name": "delete_req",
													"request": {
														"method": "GET",
														"header": []
													},
													"response": []
												},
												{
													"name": "delete_req Copy",
													"request": {
														"method": "GET",
														"header": []
													},
													"response": []
												}
											]
										},
										{
											"name": "patch_req",
											"event": [
												{
													"listen": "test",
													"script": {
														"exec": [
															"pm.test(\"Status code is 200\", function () \r",
															"{\r",
															"    pm.response.to.have.status(200);\r",
															"});\r",
															"\r",
															"// step 2: validate the response body\r",
															"// step 2.1 fetch the response body\r",
															"var responseBody = pm.response.json();\r",
															"console.log(responseBody);\r",
															"var res_name = responseBody.name;\r",
															"var res_job = responseBody.job;\r",
															"var res_date = responseBody.updatedAt;\r",
															"\r",
															"//step 2.2 fetch expected result\r",
															"var requestBody = pm.request.body.raw;\r",
															"requestBody =JSON.parse(requestBody);\r",
															"var req_name = responseBody.name;\r",
															"var req_job = responseBody.job;\r",
															"var expectedDate = new Date().toISOString().slice(0,13);\r",
															"\r",
															"//step 2.3 validate the extract response parameter\r",
															"pm.test(\"validate response body parameter: name\", function()\r",
															"{\r",
															"   pm.expect(res_name).to.eqls(req_name);\r",
															"});\r",
															"pm.test(\"validate response body parameter: job\", function()\r",
															"{\r",
															"   pm.expect(res_job).to.eqls(req_job);\r",
															"});\r",
															"pm.test(\"validate response body parameter: createdAt\", function()\r",
															"{\r",
															"   pm.expect(res_date.slice(0,13)).to.eql(expectedDate)\r",
															"});"
														],
														"type": "text/javascript"
													}
												}
											],
											"request": {
												"method": "PATCH",
												"header": [],
												"body": {
													"mode": "raw",
													"raw": "{\r\n    \"name\": \"morpheus\",\r\n    \"job\": \"zion resident\"\r\n}",
													"options": {
														"raw": {
															"language": "json"
														}
													}
												},
												"url": {
													"raw": "https://reqres.in/api/users/2",
													"protocol": "https",
													"host": [
														"reqres",
														"in"
													],
													"path": [
														"api",
														"users",
														"2"
													]
												}
											},
											"response": []
										},
										{
											"name": "patch_req_retry",
											"event": [
												{
													"listen": "test",
													"script": {
														"exec": [
															"var statuscode = pm.response.status;\r",
															"console.log(statuscode);\r",
															"var countstart = pm.collectionVariables.get(\"Start\");\r",
															"var countend = pm.collectionVariables.get(\"End\");\r",
															"if(statuscode== \"OK\")\r",
															"{\r",
															"pm.test(\"Status code is 200\", function () \r",
															"{\r",
															"    pm.response.to.have.status(200);\r",
															"});\r",
															"\r",
															"// step 2: validate the response body\r",
															"// step 2.1 fetch the response body\r",
															"var responseBody = pm.response.json();\r",
															"console.log(responseBody);\r",
															"var res_name = responseBody.name;\r",
															"var res_job = responseBody.job;\r",
															"var res_date = responseBody.updatedAt;\r",
															"\r",
															"//step 2.2 fetch expected result\r",
															"var requestBody = pm.request.body.raw;\r",
															"requestBody =JSON.parse(requestBody);\r",
															"var req_name = responseBody.name;\r",
															"var req_job = responseBody.job;\r",
															"var expectedDate = new Date().toISOString().slice(0,13);\r",
															"\r",
															"//step 2.3 validate the extract response parameter\r",
															"pm.test(\"validate response body parameter: name\", function()\r",
															"{\r",
															"   pm.expect(res_name).to.eqls(req_name);\r",
															"});\r",
															"pm.test(\"validate response body parameter: job\", function()\r",
															"{\r",
															"   pm.expect(res_job).to.eqls(req_job);\r",
															"});\r",
															"pm.test(\"validate response body parameter: createdAt\", function()\r",
															"{\r",
															"   pm.expect(res_date.slice(0,13)).to.eql(expectedDate)\r",
															"});\r",
															"}\r",
															"else\r",
															"{\r",
															"    \r",
															"  if(countstart < eval(countend-1))\r",
															"  {\r",
															"    pm.collectionVariables.set(\"Start\",eval(countstart+1))\r",
															"    console.log(pm.collectionVariables.get(\"Start\"))\r",
															"    postman.setNextRequest(\"patch_req_retry\");\r",
															"\r",
															"  }\r",
															"  else\r",
															"  {\r",
															"     postman.setNextRequest(null);\r",
															"     pm.collectionVariables.set(\"Start\",0);\r",
															"     pm.test(\"Status code is 200\",function()\r",
															"     {\r",
															"        pm.response.to.have.status(200);\r",
															"     });\r",
															"  }\r",
															"  \r",
															"}\r",
															"\r",
															""
														],
														"type": "text/javascript",
														"packages": {}
													}
												}
											],
											"request": {
												"method": "PATCH",
												"header": [],
												"body": {
													"mode": "raw",
													"raw": "{\r\n    \"name\": \"morpheus\",\r\n    \"job\": \"zion resident\"\r\n}",
													"options": {
														"raw": {
															"language": "json"
														}
													}
												},
												"url": {
													"raw": "https://reqres.in/api/users/2",
													"protocol": "https",
													"host": [
														"reqres",
														"in"
													],
													"path": [
														"api",
														"users",
														"2"
													]
												}
											},
											"response": []
										}
									]
								},
								{
									"name": "put_req",
									"event": [
										{
											"listen": "test",
											"script": {
												"exec": [
													"pm.test(\"Status code is 200\", function () \r",
													"{\r",
													"    pm.response.to.have.status(200);\r",
													"});\r",
													"\r",
													"// step 2: validate the response body\r",
													"// step 2.1 fetch the response body\r",
													"var responseBody = pm.response.json();\r",
													"console.log(responseBody);\r",
													"var res_name = responseBody.name;\r",
													"var res_job = responseBody.job;\r",
													"var res_date = responseBody.createdAt;\r",
													"\r",
													"//step 2.2 fetch expected result\r",
													"var requestBody = pm.request.body.raw;\r",
													"requestBody =JSON.parse(requestBody);\r",
													"var req_name = responseBody.name;\r",
													"var req_job = responseBody.job;\r",
													"var expectedDate = new Date().toISOString().slice(0,13);\r",
													"\r",
													"//step 2.3 validate the extract response parameter\r",
													"pm.test(\"validate response body parameter: name\", function()\r",
													"{\r",
													"   pm.expect(res_name).to.eqls(req_name);\r",
													"});\r",
													"pm.test(\"validate response body parameter: job\", function()\r",
													"{\r",
													"   pm.expect(res_job).to.eqls(req_job);\r",
													"});\r",
													"pm.test(\"validate response body parameter: createdAt\", function()\r",
													"{\r",
													"   pm.expect(res_date.slice(0,13)).to.eql(expectedDate)\r",
													"});"
												],
												"type": "text/javascript"
											}
										}
									],
									"request": {
										"method": "PUT",
										"header": [],
										"body": {
											"mode": "raw",
											"raw": "{\r\n    \"name\": \"morpheus\",\r\n    \"job\": \"zion resident\"\r\n}",
											"options": {
												"raw": {
													"language": "json"
												}
											}
										},
										"url": {
											"raw": "https://reqres.in/api/users/2",
											"protocol": "https",
											"host": [
												"reqres",
												"in"
											],
											"path": [
												"api",
												"users",
												"2"
											]
										}
									},
									"response": []
								},
								{
									"name": "put_req_retry",
									"event": [
										{
											"listen": "test",
											"script": {
												"exec": [
													"var statuscode = pm.response.status;\r",
													"console.log(statuscode);\r",
													"var countstart = pm.collectionVariables.get(\"Start\");\r",
													"var countend = pm.collectionVariables.get(\"End\");\r",
													"if(statuscode== \"Created\")\r",
													"{\r",
													"    pm.test(\"Status code is 200\", function () \r",
													"{\r",
													"    pm.response.to.have.status(200);\r",
													"});\r",
													"\r",
													"// step 2: validate the response body\r",
													"// step 2.1 fetch the response body\r",
													"var responseBody = pm.response.json();\r",
													"console.log(responseBody);\r",
													"var res_name = responseBody.name;\r",
													"var res_job = responseBody.job;\r",
													"var res_date = responseBody.updatedAt;\r",
													"\r",
													"//step 2.2 fetch expected result\r",
													"var requestBody = pm.request.body.raw;\r",
													"requestBody =JSON.parse(requestBody);\r",
													"var req_name = responseBody.name;\r",
													"var req_job = responseBody.job;\r",
													"var expectedDate = new Date().toISOString().slice(0,13);\r",
													"\r",
													"//step 2.3 validate the extract response parameter\r",
													"pm.test(\"validate response body parameter: name\", function()\r",
													"{\r",
													"   pm.expect(res_name).to.eqls(req_name);\r",
													"});\r",
													"pm.test(\"validate response body parameter: job\", function()\r",
													"{\r",
													"   pm.expect(res_job).to.eqls(req_job);\r",
													"});\r",
													"pm.test(\"validate response body parameter: createdAt\", function()\r",
													"{\r",
													"   pm.expect(res_date.slice(0,13)).to.eql(expectedDate)\r",
													"});\r",
													"\r",
													"}\r",
													"else\r",
													"{\r",
													"    \r",
													"  if(countstart < eval(countend-1))\r",
													"  {\r",
													"    pm.collectionVariables.set(\"Start\",eval(countstart+1))\r",
													"    console.log(pm.collectionVariables.get(\"Start\"))\r",
													"    postman.setNextRequest(\"put_req_retry\");\r",
													"\r",
													"  }\r",
													"  else\r",
													"  {\r",
													"     postman.setNextRequest(null);\r",
													"     pm.collectionVariables.set(\"Start\",0);\r",
													"     pm.test(\"Status code is 200\",function()\r",
													"     {\r",
													"        pm.response.to.have.status(200);\r",
													"     });\r",
													"  }\r",
													"  \r",
													"}\r",
													"\r",
													""
												],
												"type": "text/javascript",
												"packages": {}
											}
										}
									],
									"request": {
										"method": "PUT",
										"header": [],
										"body": {
											"mode": "raw",
											"raw": "{\r\n    \"name\": \"morpheus\",\r\n    \"job\": \"zion resident\"\r\n}",
											"options": {
												"raw": {
													"language": "json"
												}
											}
										},
										"url": {
											"raw": "https://reqres.in/api/users/2",
											"protocol": "https",
											"host": [
												"reqres",
												"in"
											],
											"path": [
												"api",
												"users",
												"2"
											]
										}
									},
									"response": []
								}
							]
						},
						{
							"name": "get_req",
							"event": [
								{
									"listen": "test",
									"script": {
										"exec": [
											"pm.test(\"Status code is 200\", function ()\r",
											" {\r",
											"    pm.response.to.have.status(200);\r",
											"});\r",
											"// Declare the expected result\r",
											"const id=[7,8,9,10,11,12]\r",
											"const first_name = [\"Michel\",\"Lindsay\",\"Tobias\",\"Byron\",\"George\",\"Rachel\"]\r",
											"//validate response body\r",
											"//step 3.1 Fetch response body\r",
											"var responseBody = pm.response.json();\r",
											"//step 3.3 fetch response body data array length\r",
											"var dataArray = responseBody.data;\r",
											"var count = Object.keys(dataArray).length;\r",
											"//step 3.4 fetch and validate response body parameter \r",
											"for(i=o ; i<count; i++)\r",
											"{\r",
											"   // step 3.4.1:fetch expected result\r",
											"   var exp_id = id[1];\r",
											"   var exp_first_name = first_name[i];\r",
											"   //step 3.4.2 fetch response body parameter\r",
											"   var res_id = responseBody.data[i].id;\r",
											"   var res_email = responseBody.data[i].email;\r",
											"   var res_first_name = responseBody.data[i].first_name;\r",
											"   var res_last_name = responseBody.data[i].last_name;\r",
											"   var res_avtar = responseBody.data[i].res_avtar;\r",
											"\r",
											"   //step 3.4.3 : validate response body\r",
											"   pm.test(\"validate id at index\" +i , function()\r",
											"   {\r",
											"    pm.expect(res_id).eqls(exp_id);\r",
											"   })\r",
											"\r",
											"   pm.test(\"validate  first name at index\" +i , function()\r",
											"   {\r",
											"    pm.expect(res_first_name).eqls(exp_first_name);\r",
											"   })\r",
											"\r",
											"\r",
											"\r",
											"\r",
											"}"
										],
										"type": "text/javascript"
									}
								}
							],
							"protocolProfileBehavior": {
								"disableBodyPruning": true
							},
							"request": {
								"method": "GET",
								"header": [],
								"body": {
									"mode": "raw",
									"raw": "{\r\n    \"name\": \"morpheus\",\r\n    \"job\": \"zion resident\"\r\n}",
									"options": {
										"raw": {
											"language": "json"
										}
									}
								},
								"url": {
									"raw": "https://reqres.in/api/users?page=2",
									"protocol": "https",
									"host": [
										"reqres",
										"in"
									],
									"path": [
										"api",
										"users"
									],
									"query": [
										{
											"key": "page",
											"value": "2"
										}
									]
								}
							},
							"response": []
						},
						{
							"name": "get_req_retry",
							"event": [
								{
									"listen": "test",
									"script": {
										"exec": [
											"var statuscode = pm.response.status;\r",
											"console.log(statuscode);\r",
											"var countstart = pm.collectionVariables.get(\"Start\");\r",
											"var countend = pm.collectionVariables.get(\"End\");\r",
											"if(statuscode== \"OK\")\r",
											"{\r",
											"pm.test(\"Status code is 200\", function () {\r",
											"    pm.response.to.have.status(200);\r",
											"});\r",
											"// Declare the expected result\r",
											"            \r",
											"const email = [\"michael.lawson@reqres.in\",\"lindsay.ferguson@reqres.in\",\"tobias.funke@reqres.in\",\"byron.fields@reqres.in\",\"george.edwards@reqres.in\",\"rachel.howell@reqres.in\"]\r",
											"const id=[7,8,9,10,11,12]\r",
											"const first_name = [\"Michael\",\"Lindsay\",\"Tobias\",\"Byron\",\"George\",\"Rachel\"]\r",
											"const last_name = [\"Lawson\",\"Ferguson\",\"Funke\",\"Fields\",\"Edwards\",\"Howell\"]\r",
											"const avatar = [\"https://reqres.in/img/faces/7-image.jpg\",\"https://reqres.in/img/faces/8-image.jpg\",\"https://reqres.in/img/faces/9-image.jpg\",\"https://reqres.in/img/faces/10-image.jpg\",\"https://reqres.in/img/faces/11-image.jpg\",\"https://reqres.in/img/faces/12-image.jpg\"]\r",
											"//validate response body\r",
											"//step 3.1 Fetch response body\r",
											"var responseBody = pm.response.json();\r",
											"\r",
											"//step 3.3 fetch response body data array length\r",
											"var dataArray = responseBody.data;\r",
											"var count = Object.keys(dataArray).length;\r",
											"//step 3.4 fetch and validate response body parameter \r",
											"for(i=0; i<count; i++)\r",
											"{\r",
											"   // step 3.4.1:fetch expected result\r",
											"   var exp_id = id[i];\r",
											"   var exp_email_id = email[i];\r",
											"   var exp_first_name = first_name[i];\r",
											"   var exp_last_name = last_name[i];\r",
											"   var exp_avatar = avatar[i];\r",
											"   //step 3.4.2 fetch response body parameter\r",
											"   var res_id = responseBody.data[i].id;\r",
											"   var res_email = responseBody.data[i].email;\r",
											"   var res_first_name = responseBody.data[i].first_name;\r",
											"   var res_last_name = responseBody.data[i].last_name;\r",
											"   var res_avatar = responseBody.data[i].avatar;\r",
											"\r",
											"   //step 3.4.3 : validate response body\r",
											"   pm.test(\"validate id at index \" + i , function()\r",
											"   {\r",
											"    pm.expect(res_id).eqls(exp_id);\r",
											"   })\r",
											"   pm.test(\"validate  email id at index \" + i , function()\r",
											"   {\r",
											"    pm.expect(res_email).eqls(exp_email_id);\r",
											"   })\r",
											"\r",
											"   pm.test(\"validate  first name at index \" + i , function()\r",
											"   {\r",
											"    pm.expect(res_first_name).eqls(exp_first_name);\r",
											"   })\r",
											"   pm.test(\"validate  last name at index \" + i, function()\r",
											"   {\r",
											"    pm.expect(res_last_name).eqls(exp_last_name);\r",
											"   })\r",
											"   pm.test(\"validate  avatar at index \" + i, function()\r",
											"   {\r",
											"    pm.expect(res_avatar).eqls(exp_avatar);\r",
											"   })\r",
											"}\r",
											"}\r",
											"else\r",
											"{\r",
											"  if(countstart < eval(countend-1))\r",
											"  {\r",
											"    pm.collectionVariables.set(\"Start\",eval(countstart+1))\r",
											"    console.log(pm.collectionVariables.get(\"Start\"))\r",
											"    postman.setNextRequest(\"get_req_retry\");\r",
											"\r",
											"  }\r",
											"  else\r",
											"  {\r",
											"     postman.setNextRequest(null);\r",
											"     pm.collectionVariables.set(\"Start\",0);\r",
											"     pm.test(\"Status code is 200\",function()\r",
											"     {\r",
											"        pm.response.to.have.status(200);\r",
											"     });\r",
											"  }\r",
											"  }"
										],
										"type": "text/javascript",
										"packages": {}
									}
								}
							],
							"protocolProfileBehavior": {
								"disableBodyPruning": true
							},
							"request": {
								"method": "GET",
								"header": [],
								"body": {
									"mode": "raw",
									"raw": "{\r\n    \"name\": \"morpheus\",\r\n    \"job\": \"zion resident\"\r\n}",
									"options": {
										"raw": {
											"language": "json"
										}
									}
								},
								"url": {
									"raw": "https://reqres.in/api/users?page=2",
									"protocol": "https",
									"host": [
										"reqres",
										"in"
									],
									"path": [
										"api",
										"users"
									],
									"query": [
										{
											"key": "page",
											"value": "2"
										}
									]
								}
							},
							"response": []
						},
						{
							"name": "post_req",
							"event": [
								{
									"listen": "test",
									"script": {
										"exec": [
											"pm.test(\"Status code is 201\", function () \r",
											"{\r",
											"    pm.response.to.have.status(201);\r",
											"});\r",
											"\r",
											"// step 2: validate the response body\r",
											"// step 2.1 fetch the response body\r",
											"var responseBody = pm.response.json();\r",
											"console.log(responseBody);\r",
											"var res_name = responseBody.name;\r",
											"var res_job = responseBody.job;\r",
											"var res_id = responseBody.id;\r",
											"var res_date = responseBody.createdAt;\r",
											"\r",
											"//step 2.2 fetch expected result\r",
											"var requestBody = pm.request.body.raw;\r",
											"requestBody =JSON.parse(requestBody);\r",
											"var req_name = responseBody.name;\r",
											"var req_job = responseBody.job;\r",
											"var expectedDate = new Date().toISOString().slice(0,13);\r",
											"\r",
											"//step 2.3 validate the extract response parameter\r",
											"pm.test(\"validate response body parameter: name\", function()\r",
											"{\r",
											"   pm.expect(res_name).to.eqls(req_name);\r",
											"});\r",
											"pm.test(\"validate response body parameter: job\", function()\r",
											"{\r",
											"   pm.expect(res_job).to.eqls(req_job);\r",
											"});\r",
											"pm.test(\"validate response body parameter: id\", function()\r",
											"{\r",
											"   pm.expect(res_id).to.not.null;\r",
											"   pm.expect(res_id).to.have.length(3);\r",
											"});\r",
											"pm.test(\"validate response body parameter: createdAt\", function()\r",
											"{\r",
											"   pm.expect(res_date.slice(0,13)).to.eql(expectedDate)\r",
											"});"
										],
										"type": "text/javascript"
									}
								}
							],
							"request": {
								"method": "POST",
								"header": [],
								"body": {
									"mode": "raw",
									"raw": "{\r\n    \"name\": \"morpheus\",\r\n    \"job\": \"zion resident\"\r\n}",
									"options": {
										"raw": {
											"language": "json"
										}
									}
								},
								"url": {
									"raw": "https://reqres.in/api/users",
									"protocol": "https",
									"host": [
										"reqres",
										"in"
									],
									"path": [
										"api",
										"users"
									]
								}
							},
							"response": []
						},
						{
							"name": "post_req_retry",
							"event": [
								{
									"listen": "test",
									"script": {
										"exec": [
											"var statuscode = pm.response.status;\r",
											"console.log(statuscode);\r",
											"var countstart = pm.collectionVariables.get(\"Start\");\r",
											"var countend = pm.collectionVariables.get(\"End\");\r",
											"if(statuscode== \"Created\")\r",
											"{\r",
											"    \r",
											"pm.test(\"Status code is 201\", function () \r",
											"{\r",
											"    pm.response.to.have.status(201);\r",
											"});\r",
											"\r",
											"// step 2: validate the response body\r",
											"// step 2.1 fetch the response body\r",
											"var responseBody = pm.response.json();\r",
											"console.log(responseBody);\r",
											"var res_name = responseBody.name;\r",
											"var res_job = responseBody.job;\r",
											"var res_id = responseBody.id;\r",
											"var res_date = responseBody.createdAt;\r",
											"\r",
											"//step 2.2 fetch expected result\r",
											"var requestBody = pm.request.body.raw;\r",
											"requestBody =JSON.parse(requestBody);\r",
											"var req_name = responseBody.name;\r",
											"var req_job = responseBody.job;\r",
											"var expectedDate = new Date().toISOString().slice(0,13);\r",
											"\r",
											"//step 2.3 validate the extract response parameter\r",
											"pm.test(\"validate response body parameter: name\", function()\r",
											"{\r",
											"   pm.expect(res_name).to.eqls(req_name);\r",
											"});\r",
											"pm.test(\"validate response body parameter: job\", function()\r",
											"{\r",
											"   pm.expect(res_job).to.eqls(req_job);\r",
											"});\r",
											"pm.test(\"validate response body parameter: id\", function()\r",
											"{\r",
											"   pm.expect(res_id).to.not.null;\r",
											"   pm.expect(res_id).to.have.length(3);\r",
											"});\r",
											"pm.test(\"validate response body parameter: createdAt\", function()\r",
											"{\r",
											"   pm.expect(res_date.slice(0,13)).to.eql(expectedDate)\r",
											"});\r",
											"}\r",
											"else\r",
											"{\r",
											"  if(countstart < eval(countend-1))\r",
											"  {\r",
											"    pm.collectionVariables.set(\"Start\",eval(countstart+1))\r",
											"    console.log(pm.collectionVariables.get(\"Start\"))\r",
											"    postman.setNextRequest(\"post_req_retry\");\r",
											"\r",
											"  }\r",
											"  else\r",
											"  {\r",
											"     postman.setNextRequest(null);\r",
											"     pm.collectionVariables.set(\"Start\",0);\r",
											"     pm.test(\"Status code is 201\",function()\r",
											"     {\r",
											"        pm.response.to.have.status(201);\r",
											"     });\r",
											"  }\r",
											"  }"
										],
										"type": "text/javascript",
										"packages": {}
									}
								}
							],
							"request": {
								"method": "POST",
								"header": [],
								"body": {
									"mode": "raw",
									"raw": "{\r\n    \"name\": \"morpheus\",\r\n    \"job\": \"zion resident\"\r\n}",
									"options": {
										"raw": {
											"language": "json"
										}
									}
								},
								"url": {
									"raw": "https://reqres.in/api/users",
									"protocol": "https",
									"host": [
										"reqres",
										"in"
									],
									"path": [
										"api",
										"users"
									]
								}
							},
							"response": []
						}
					]
				}
			]
		},
		{
			"name": "Data_Drieven",
			"item": [
				{
					"name": "post_req Copy",
					"event": [
						{
							"listen": "test",
							"script": {
								"exec": [
									"pm.test(\"Status code is 201\", function () \r",
									"{\r",
									"    pm.response.to.have.status(201);\r",
									"});\r",
									"\r",
									"// step 2: validate the response body\r",
									"// step 2.1 fetch the response body\r",
									"var responseBody = pm.response.json();\r",
									"console.log(responseBody);\r",
									"var res_name = responseBody.name;\r",
									"var res_job = responseBody.job;\r",
									"var res_id = responseBody.id;\r",
									"var res_date = responseBody.createdAt;\r",
									"\r",
									"//step 2.2 fetch expected result\r",
									"var requestBody = pm.request.body.raw;\r",
									"requestBody =JSON.parse(requestBody);\r",
									"var req_name = responseBody.name;\r",
									"var req_job = responseBody.job;\r",
									"var expectedDate = new Date().toISOString().slice(0,13);\r",
									"\r",
									"//step 2.3 validate the extract response parameter\r",
									"pm.test(\"validate response body parameter: name\", function()\r",
									"{\r",
									"   pm.expect(res_name).to.eqls(req_name);\r",
									"});\r",
									"pm.test(\"validate response body parameter: job\", function()\r",
									"{\r",
									"   pm.expect(res_job).to.eqls(req_job);\r",
									"});\r",
									"pm.test(\"validate response body parameter: id\", function()\r",
									"{\r",
									"   pm.expect(res_id).to.not.null;\r",
									"   pm.expect(res_id).to.have.length(3);\r",
									"});\r",
									"pm.test(\"validate response body parameter: createdAt\", function()\r",
									"{\r",
									"   pm.expect(res_date.slice(0,13)).to.eql(expectedDate)\r",
									"});"
								],
								"type": "text/javascript"
							}
						}
					],
					"request": {
						"method": "POST",
						"header": [],
						"body": {
							"mode": "raw",
							"raw": "{\r\n    \"name\": \"morpheus\",\r\n    \"job\": \"zion resident\"\r\n}",
							"options": {
								"raw": {
									"language": "json"
								}
							}
						},
						"url": {
							"raw": "https://reqres.in/api/users",
							"protocol": "https",
							"host": [
								"reqres",
								"in"
							],
							"path": [
								"api",
								"users"
							]
						}
					},
					"response": []
				},
				{
					"name": "Random_data",
					"event": [
						{
							"listen": "test",
							"script": {
								"exec": [
									"pm.test(\"Status code is 201\", function () \r",
									"{\r",
									"    pm.response.to.have.status(201);\r",
									"});\r",
									"\r",
									"// step 2: validate the response body\r",
									"// step 2.1 fetch the response body\r",
									"var responseBody = pm.response.json();\r",
									"console.log(responseBody);\r",
									"var res_name = responseBody.name;\r",
									"var res_job = responseBody.job;\r",
									"var res_id = responseBody.id;\r",
									"var res_date = responseBody.createdAt;\r",
									"\r",
									"//step 2.2 fetch expected result\r",
									"var requestBody = pm.request.body.raw;\r",
									"requestBody =JSON.parse(requestBody);\r",
									"var req_name = responseBody.name;\r",
									"var req_job = responseBody.job;\r",
									"var expectedDate = new Date().toISOString().slice(0,13);\r",
									"\r",
									"//step 2.3 validate the extract response parameter\r",
									"pm.test(\"validate response body parameter: name\", function()\r",
									"{\r",
									"   pm.expect(res_name).to.eqls(req_name);\r",
									"});\r",
									"pm.test(\"validate response body parameter: job\", function()\r",
									"{\r",
									"   pm.expect(res_job).to.eqls(req_job);\r",
									"});\r",
									"pm.test(\"validate response body parameter: id\", function()\r",
									"{\r",
									"   pm.expect(res_id).to.not.null;\r",
									"   pm.expect(res_id).to.have.length(3);\r",
									"});\r",
									"pm.test(\"validate response body parameter: createdAt\", function()\r",
									"{\r",
									"   pm.expect(res_date.slice(0,13)).to.eql(expectedDate)\r",
									"});"
								],
								"type": "text/javascript",
								"packages": {}
							}
						},
						{
							"listen": "prerequest",
							"script": {
								"exec": [
									"var random_name=pm.variables.replaceIn('{{$randomFullName}}');\r",
									"pm.collectionVariables.set(\"Coll_Name\",random_name);\r",
									"\r",
									"var random_job=pm.variables.replaceIn('{{$randomJobType}}');\r",
									"pm.collectionVariables.set(\"Coll_Job\",random_job);\r",
									"\r",
									""
								],
								"type": "text/javascript",
								"packages": {}
							}
						}
					],
					"request": {
						"method": "POST",
						"header": [],
						"body": {
							"mode": "raw",
							"raw": "{\r\n    \"name\": \"{{Coll_Name}}\",\r\n    \"job\": \"{{Coll_Job}}\"\r\n}",
							"options": {
								"raw": {
									"language": "json"
								}
							}
						},
						"url": {
							"raw": "{{BASE_URL}}",
							"host": [
								"{{BASE_URL}}"
							]
						}
					},
					"response": []
				},
				{
					"name": "Excel_Data",
					"event": [
						{
							"listen": "test",
							"script": {
								"exec": [
									"pm.test(\"Status code is 201\", function () \r",
									"{\r",
									"    pm.response.to.have.status(201);\r",
									"});\r",
									"\r",
									"// step 2: validate the response body\r",
									"// step 2.1 fetch the response body\r",
									"var responseBody = pm.response.json();\r",
									"console.log(responseBody);\r",
									"var res_name = responseBody.name;\r",
									"var res_job = responseBody.job;\r",
									"var res_id = responseBody.id;\r",
									"var res_date = responseBody.createdAt;\r",
									"\r",
									"//step 2.2 fetch expected result\r",
									"var requestBody = pm.request.body.raw;\r",
									"requestBody =JSON.parse(requestBody);\r",
									"var req_name = responseBody.name;\r",
									"var req_job = responseBody.job;\r",
									"var expectedDate = new Date().toISOString().slice(0,13);\r",
									"\r",
									"//step 2.3 validate the extract response parameter\r",
									"pm.test(\"validate response body parameter: name\", function()\r",
									"{\r",
									"   pm.expect(res_name).to.eqls(req_name);\r",
									"});\r",
									"pm.test(\"validate response body parameter: job\", function()\r",
									"{\r",
									"   pm.expect(res_job).to.eqls(req_job);\r",
									"});\r",
									"pm.test(\"validate response body parameter: id\", function()\r",
									"{\r",
									"   pm.expect(res_id).to.not.null;\r",
									"   pm.expect(res_id).to.have.length(3);\r",
									"});\r",
									"pm.test(\"validate response body parameter: createdAt\", function()\r",
									"{\r",
									"   pm.expect(res_date.slice(0,13)).to.eql(expectedDate)\r",
									"});"
								],
								"type": "text/javascript",
								"packages": {}
							}
						},
						{
							"listen": "prerequest",
							"script": {
								"exec": [
									"\r",
									""
								],
								"type": "text/javascript",
								"packages": {}
							}
						}
					],
					"request": {
						"method": "POST",
						"header": [],
						"body": {
							"mode": "raw",
							"raw": "{\r\n    \"name\": \"{{Coll_Excel_Name}}\",\r\n    \"job\": \"{{Coll_Excel_Job}}\"\r\n}",
							"options": {
								"raw": {
									"language": "json"
								}
							}
						},
						"url": {
							"raw": "{{BASE_URL}}",
							"host": [
								"{{BASE_URL}}"
							]
						}
					},
					"response": []
				},
				{
					"name": "Json_Data",
					"event": [
						{
							"listen": "test",
							"script": {
								"exec": [
									"pm.test(\"Status code is 201\", function () \r",
									"{\r",
									"    pm.response.to.have.status(201);\r",
									"});\r",
									"\r",
									"// step 2: validate the response body\r",
									"// step 2.1 fetch the response body\r",
									"var responseBody = pm.response.json();\r",
									"console.log(responseBody);\r",
									"var res_name = responseBody.name;\r",
									"var res_job = responseBody.job;\r",
									"var res_id = responseBody.id;\r",
									"var res_date = responseBody.createdAt;\r",
									"\r",
									"//step 2.2 fetch expected result\r",
									"var requestBody = pm.request.body.raw;\r",
									"requestBody =JSON.parse(requestBody);\r",
									"var req_name = responseBody.name;\r",
									"var req_job = responseBody.job;\r",
									"var expectedDate = new Date().toISOString().slice(0,13);\r",
									"\r",
									"//step 2.3 validate the extract response parameter\r",
									"pm.test(\"validate response body parameter: name\", function()\r",
									"{\r",
									"   pm.expect(res_name).to.eqls(req_name);\r",
									"});\r",
									"pm.test(\"validate response body parameter: job\", function()\r",
									"{\r",
									"   pm.expect(res_job).to.eqls(req_job);\r",
									"});\r",
									"pm.test(\"validate response body parameter: id\", function()\r",
									"{\r",
									"   pm.expect(res_id).to.not.null;\r",
									"   pm.expect(res_id).to.have.length(3);\r",
									"});\r",
									"pm.test(\"validate response body parameter: createdAt\", function()\r",
									"{\r",
									"   pm.expect(res_date.slice(0,13)).to.eql(expectedDate)\r",
									"});"
								],
								"type": "text/javascript",
								"packages": {}
							}
						},
						{
							"listen": "prerequest",
							"script": {
								"exec": [
									"\r",
									""
								],
								"type": "text/javascript",
								"packages": {}
							}
						}
					],
					"request": {
						"method": "POST",
						"header": [],
						"body": {
							"mode": "raw",
							"raw": "{\r\n    \"name\": \"{{Coll_Json_Name}}\",\r\n    \"job\": \"{{Coll_Json_Job}}\"\r\n}",
							"options": {
								"raw": {
									"language": "json"
								}
							}
						},
						"url": {
							"raw": "{{BASE_URL}}",
							"host": [
								"{{BASE_URL}}"
							]
						}
					},
					"response": []
				},
				{
					"name": "Authorisation",
					"request": {
						"method": "GET",
						"header": []
					},
					"response": []
				}
			]
		}
	],
	"event": [
		{
			"listen": "prerequest",
			"script": {
				"type": "text/javascript",
				"packages": {},
				"exec": [
					""
				]
			}
		},
		{
			"listen": "test",
			"script": {
				"type": "text/javascript",
				"packages": {},
				"exec": [
					""
				]
			}
		}
	],
	"variable": [
		{
			"key": "Coll_Name",
			"value": "",
			"type": "string"
		},
		{
			"key": "Coll_Job",
			"value": ""
		},
		{
			"key": "Coll_Excel_Name",
			"value": "",
			"type": "string"
		},
		{
			"key": "Coll_Excel_Job",
			"value": "",
			"type": "string"
		},
		{
			"key": "Coll_Json_Name",
			"value": "",
			"type": "string"
		},
		{
			"key": "Coll_Json_Job",
			"value": "",
			"type": "string"
		},
		{
			"key": "Start",
			"value": "",
			"type": "string"
		},
		{
			"key": "End",
			"value": "",
			"type": "string"
		}
	]
}